Sleep_score_CTB
…
## `summarise()` has grouped output by 'Transmitter', 'Genotype', 'ZT'. You can override using the `.groups` argument.

t_wt$PercentWake <- (t_wt$sum_wake / (t_wt$sum_sws + t_wt$sum_wake + t_wt$sum_ps + t_wt$sum_art))
t_wt$PercentSWS <- (t_wt$sum_sws / (t_wt$sum_sws + t_wt$sum_wake + t_wt$sum_ps + t_wt$sum_art))
t_wt$PercentPS <- (t_wt$sum_ps / (t_wt$sum_sws + t_wt$sum_wake + t_wt$sum_ps + t_wt$sum_art))
t_wt$PercentSleep <- ((t_wt$sum_sws + t_wt$sum_ps)/ (t_wt$sum_sws + t_wt$sum_wake + t_wt$sum_ps + t_wt$sum_art))

t_wt <- t_wt %>% dplyr::mutate(phase= ifelse(ZT>11, "dark", "light"))

t_wt$ZT <- as.factor(t_wt$ZT)

t_wt

## # A tibble: 2,064 x 13
## # Groups:   Transmitter, Genotype, ZT [456]
##    Transmitter Genotype ZT      Day sum_wake sum_sws sum_ps sum_art PercentWake
##    <chr>       <chr>    <fct> <int>    <dbl>   <dbl>  <dbl>   <dbl>       <dbl>
##  1 1011099     WT       0         1      2.8    54.2    2.8     0.2      0.0467
##  2 1011099     WT       0         2     14      41.9    3.9     0.4      0.233 
##  3 1011099     WT       0         3      2.6    55.9    1.5     0        0.0433
##  4 1011099     WT       0         4     19      39      1.6     0.3      0.317 
##  5 1011099     WT       1         1     20.1    37.8    1.9     0.2      0.335 
##  6 1011099     WT       1         2      5.7    51.3    3       0        0.095 
##  7 1011099     WT       1         3      6.7    52.6    0.3     0.4      0.112 
##  8 1011099     WT       1         4      5.7    51.8    2.5     0        0.095 
##  9 1011099     WT       2         1     10      48.4    1.7     0        0.166 
## 10 1011099     WT       2         2     29.8    28.2    1.4     0.7      0.496 
## # ... with 2,054 more rows, and 4 more variables: PercentSWS <dbl>,
## #   PercentPS <dbl>, PercentSleep <dbl>, phase <chr>
…
## `summarise()` has grouped output by 'Genotype', 'ZT'. You can override using the `.groups` argument.

SumStatwt

## # A tibble: 48 x 16
## # Groups:   Genotype, ZT [48]
##    Genotype ZT    phase     n mean_Wake sd_Wake se_Wake mean_Sleep sd_Sleep
##    <chr>    <fct> <chr> <int>     <dbl>   <dbl>   <dbl>      <dbl>    <dbl>
##  1 McKO     0     light    40     0.207   0.140  0.0222      0.791    0.141
##  2 McKO     1     light    40     0.222   0.173  0.0274      0.776    0.174
##  3 McKO     2     light    40     0.158   0.148  0.0234      0.841    0.148
##  4 McKO     3     light    40     0.206   0.139  0.0219      0.792    0.141
##  5 McKO     4     light    40     0.149   0.147  0.0232      0.850    0.147
##  6 McKO     5     light    40     0.209   0.185  0.0292      0.789    0.185
##  7 McKO     6     light    40     0.179   0.155  0.0244      0.819    0.156
##  8 McKO     7     light    40     0.175   0.160  0.0253      0.824    0.161
##  9 McKO     8     light    40     0.197   0.141  0.0224      0.801    0.143
## 10 McKO     9     light    40     0.276   0.178  0.0281      0.722    0.178
## # ... with 38 more rows, and 7 more variables: se_Sleep <dbl>, mean_SWS <dbl>,
## #   sd_SWS <dbl>, se_SWS <dbl>, mean_PS <dbl>, sd_PS <dbl>, se_PS <dbl>

t_wt_days <- t_wt %>%
   group_by(Transmitter, Genotype, ZT, phase) %>%
   dplyr::summarise(mean_wake = mean(PercentWake),
                    mean_sws = mean(PercentSWS),
                    mean_ps = mean(PercentPS),
                    mean_sleep = mean(PercentSleep))

## `summarise()` has grouped output by 'Transmitter', 'Genotype', 'ZT'. You can override using the `.groups` argument.

t_wt_days

## # A tibble: 456 x 8
## # Groups:   Transmitter, Genotype, ZT [456]
##    Transmitter Genotype ZT    phase mean_wake mean_sws mean_ps mean_sleep
##    <chr>       <chr>    <fct> <chr>     <dbl>    <dbl>   <dbl>      <dbl>
##  1 1011099     WT       0     light     0.160    0.796 0.0408       0.836
##  2 1011099     WT       1     light     0.159    0.806 0.0321       0.838
##  3 1011099     WT       2     light     0.318    0.643 0.0358       0.678
##  4 1011099     WT       3     light     0.194    0.778 0.0242       0.802
##  5 1011099     WT       4     light     0.250    0.713 0.0354       0.748
##  6 1011099     WT       5     light     0.242    0.721 0.0354       0.757
##  7 1011099     WT       6     light     0.206    0.785 0.00499      0.790
##  8 1011099     WT       7     light     0.159    0.804 0.0300       0.834
##  9 1011099     WT       8     light     0.381    0.592 0.0224       0.614
## 10 1011099     WT       9     light     0.219    0.752 0.0250       0.777
## # ... with 446 more rows
…
## # A tibble: 4 x 15
## # Groups:   Genotype [2]
##   Genotype phase     n mean_Wake sd_Wake se_Wake mean_Sleep sd_Sleep se_Sleep
##   <chr>    <chr> <int>     <dbl>   <dbl>   <dbl>      <dbl>    <dbl>    <dbl>
## 1 McKO     dark    480     0.521   0.223 0.0102       0.477    0.224  0.0102 
## 2 McKO     light   480     0.229   0.180 0.00824      0.769    0.181  0.00828
## 3 WT       dark    552     0.558   0.279 0.0119       0.439    0.280  0.0119 
## 4 WT       light   552     0.270   0.201 0.00854      0.728    0.202  0.00858
## # ... with 6 more variables: mean_SWS <dbl>, sd_SWS <dbl>, se_SWS <dbl>,
## #   mean_PS <dbl>, sd_PS <dbl>, se_PS <dbl>

t_wt

## # A tibble: 2,064 x 13
## # Groups:   Transmitter, Genotype, ZT [456]
##    Transmitter Genotype ZT      Day sum_wake sum_sws sum_ps sum_art PercentWake
##    <chr>       <chr>    <fct> <int>    <dbl>   <dbl>  <dbl>   <dbl>       <dbl>
##  1 1011099     WT       0         1      2.8    54.2    2.8     0.2      0.0467
##  2 1011099     WT       0         2     14      41.9    3.9     0.4      0.233 
##  3 1011099     WT       0         3      2.6    55.9    1.5     0        0.0433
##  4 1011099     WT       0         4     19      39      1.6     0.3      0.317 
##  5 1011099     WT       1         1     20.1    37.8    1.9     0.2      0.335 
##  6 1011099     WT       1         2      5.7    51.3    3       0        0.095 
##  7 1011099     WT       1         3      6.7    52.6    0.3     0.4      0.112 
##  8 1011099     WT       1         4      5.7    51.8    2.5     0        0.095 
##  9 1011099     WT       2         1     10      48.4    1.7     0        0.166 
## 10 1011099     WT       2         2     29.8    28.2    1.4     0.7      0.496 
## # ... with 2,054 more rows, and 4 more variables: PercentSWS <dbl>,
## #   PercentPS <dbl>, PercentSleep <dbl>, phase <chr>

t_wtp <- t_wt %>%
  group_by(Transmitter, Genotype, phase)%>%
  dplyr::summarise(mean_wake = mean(PercentWake),
                   mean_sws = mean(PercentSWS),
                   mean_ps = mean(PercentPS),
                   mean_sleep = mean(PercentSleep))

## `summarise()` has grouped output by 'Transmitter', 'Genotype'. You can override using the `.groups` argument.

t_wtp

## # A tibble: 38 x 7
## # Groups:   Transmitter, Genotype [19]
##    Transmitter Genotype phase mean_wake mean_sws mean_ps mean_sleep
##    <chr>       <chr>    <chr>     <dbl>    <dbl>   <dbl>      <dbl>
##  1 1011099     WT       dark      0.543    0.423  0.0233      0.447
##  2 1011099     WT       light     0.232    0.736  0.0281      0.764
##  3 1011099A    WT       dark      0.628    0.297  0.0691      0.366
##  4 1011099A    WT       light     0.322    0.557  0.117       0.675
##  5 1031296     WT       dark      0.530    0.416  0.0534      0.470
##  6 1031296     WT       light     0.270    0.632  0.0974      0.730
##  7 1050240     McKO     dark      0.599    0.364  0.0367      0.400
##  8 1050240     McKO     light     0.229    0.691  0.0793      0.770
##  9 1050240A    WT       dark      0.612    0.355  0.0311      0.386
## 10 1050240A    WT       light     0.265    0.689  0.0449      0.733
## # ... with 28 more rows
…
t_wt_30

## # A tibble: 4,127 x 13
## # Groups:   Transmitter, Genotype, TimeDay [912]
##    Transmitter Genotype TimeDay        Day phase sum_wake sum_sws sum_ps sum_art
##    <chr>       <chr>    <fct>        <int> <chr>    <dbl>   <dbl>  <dbl>   <dbl>
##  1 1011099     WT       0:00:00-0:3~     1 dark      20.7     8.5    0.7     0.2
##  2 1011099     WT       0:00:00-0:3~     2 dark      10.7    18.8    0.2     0.3
##  3 1011099     WT       0:30:00-1:0~     1 dark      15.2    14      0.5     0.3
##  4 1011099     WT       0:30:00-1:0~     2 dark      11.7    17.3    0.8     0.2
##  5 1011099     WT       1:00:00-1:3~     1 dark      12      16.2    1.7     0.2
##  6 1011099     WT       1:00:00-1:3~     2 dark       3.8    25.7    0.3     0.2
##  7 1011099     WT       1:30:00-2:0~     1 dark       6.8    23      0.2     0  
##  8 1011099     WT       1:30:00-2:0~     2 dark      18.2    11.3    0.3     0.2
##  9 1011099     WT       10:00:00-10~     1 light      8.7    20.2    1.2     0  
## 10 1011099     WT       10:00:00-10~     2 light      0      27.7    2.3     0  
## # ... with 4,117 more rows, and 4 more variables: PercentWake <dbl>,
## #   PercentSWS <dbl>, PercentPS <dbl>, PercentSleep <dbl>
…
## `summarise()` has grouped output by 'Genotype', 'TimeDay'. You can override using the `.groups` argument.

SumStatwt_30

## # A tibble: 96 x 16
## # Groups:   Genotype, TimeDay [96]
##    Genotype TimeDay    phase     n mean_Wake sd_Wake se_Wake mean_Sleep sd_Sleep
##    <chr>    <fct>      <chr> <int>     <dbl>   <dbl>   <dbl>      <dbl>    <dbl>
##  1 McKO     0:00:00-0~ dark     40     0.590   0.284  0.0450      0.407    0.287
##  2 McKO     0:30:00-1~ dark     40     0.568   0.301  0.0476      0.430    0.302
##  3 McKO     1:00:00-1~ dark     40     0.463   0.304  0.0480      0.534    0.304
##  4 McKO     1:30:00-2~ dark     40     0.516   0.303  0.0480      0.479    0.305
##  5 McKO     10:00:00-~ light    40     0.137   0.209  0.0330      0.862    0.209
##  6 McKO     10:30:00-~ light    40     0.161   0.193  0.0306      0.838    0.194
##  7 McKO     11:00:00-~ light    40     0.247   0.240  0.0380      0.750    0.241
##  8 McKO     11:30:00-~ light    40     0.170   0.247  0.0390      0.829    0.247
##  9 McKO     12:00:00-~ light    40     0.184   0.211  0.0334      0.814    0.212
## 10 McKO     12:30:00-~ light    40     0.174   0.215  0.0340      0.824    0.217
## # ... with 86 more rows, and 7 more variables: se_Sleep <dbl>, mean_SWS <dbl>,
## #   sd_SWS <dbl>, se_SWS <dbl>, mean_PS <dbl>, sd_PS <dbl>, se_PS <dbl>
…
